-------------------------------------------------------------------------------
Test set: com.libertymutual.david_desjardins.programs.example101.shapes.SquareTest
-------------------------------------------------------------------------------
Tests run: 1, Failures: 0, Errors: 0, Skipped: 0, Time elapsed: 0.001 s - in com.libertymutual.david_desjardins.programs.example101.shapes.SquareTest
